EESchema Schematic File Version 4
EELAYER 30 0
EELAYER END
$Descr A4 11693 8268
encoding utf-8
Sheet 1 1
Title ""
Date ""
Rev ""
Comp ""
Comment1 ""
Comment2 ""
Comment3 ""
Comment4 ""
$EndDescr
$Comp
L Device:LED G3
U 1 1 5F9932C5
P 4200 3050
F 0 "G3" H 4193 3267 50  0000 C CNN
F 1 "LED" H 4193 3176 50  0000 C CNN
F 2 "LED_THT:LED_D5.0mm_Clear" H 4200 3050 50  0001 C CNN
F 3 "~" H 4200 3050 50  0001 C CNN
	1    4200 3050
	0    -1   -1   0   
$EndComp
$Comp
L Device:LED G2
U 1 1 5F9932CB
P 3850 3050
F 0 "G2" H 3843 3267 50  0000 C CNN
F 1 "LED" H 3843 3176 50  0000 C CNN
F 2 "LED_THT:LED_D5.0mm_Clear" H 3850 3050 50  0001 C CNN
F 3 "~" H 3850 3050 50  0001 C CNN
	1    3850 3050
	0    -1   -1   0   
$EndComp
$Comp
L Device:LED G1
U 1 1 5F9932D1
P 3500 3050
F 0 "G1" H 3493 3267 50  0000 C CNN
F 1 "LED" H 3493 3176 50  0000 C CNN
F 2 "LED_THT:LED_D5.0mm_Clear" H 3500 3050 50  0001 C CNN
F 3 "~" H 3500 3050 50  0001 C CNN
	1    3500 3050
	0    -1   -1   0   
$EndComp
$Comp
L Device:LED IR3
U 1 1 5F995CCB
P 6200 1900
F 0 "IR3" H 6193 2117 50  0000 C CNN
F 1 "LED" H 6193 2026 50  0000 C CNN
F 2 "LED_THT:LED_D5.0mm_Clear" H 6200 1900 50  0001 C CNN
F 3 "~" H 6200 1900 50  0001 C CNN
	1    6200 1900
	0    -1   -1   0   
$EndComp
$Comp
L Device:LED IR2
U 1 1 5F995CD1
P 5850 1900
F 0 "IR2" H 5843 2117 50  0000 C CNN
F 1 "LED" H 5843 2026 50  0000 C CNN
F 2 "LED_THT:LED_D5.0mm_Clear" H 5850 1900 50  0001 C CNN
F 3 "~" H 5850 1900 50  0001 C CNN
	1    5850 1900
	0    -1   -1   0   
$EndComp
$Comp
L Device:LED IR1
U 1 1 5F995CD7
P 5500 1900
F 0 "IR1" H 5493 2117 50  0000 C CNN
F 1 "LED" H 5493 2026 50  0000 C CNN
F 2 "LED_THT:LED_D5.0mm_Clear" H 5500 1900 50  0001 C CNN
F 3 "~" H 5500 1900 50  0001 C CNN
	1    5500 1900
	0    -1   -1   0   
$EndComp
$Comp
L Device:LED IR4
U 1 1 5F995CDD
P 6550 1900
F 0 "IR4" H 6543 2117 50  0000 C CNN
F 1 "LED" H 6543 2026 50  0000 C CNN
F 2 "LED_THT:LED_D5.0mm_Clear" H 6550 1900 50  0001 C CNN
F 3 "~" H 6550 1900 50  0001 C CNN
	1    6550 1900
	0    -1   -1   0   
$EndComp
$Comp
L power:GND #PWR04
U 1 1 5F99C971
P 2050 1300
F 0 "#PWR04" H 2050 1050 50  0001 C CNN
F 1 "GND" H 2055 1127 50  0000 C CNN
F 2 "" H 2050 1300 50  0001 C CNN
F 3 "" H 2050 1300 50  0001 C CNN
	1    2050 1300
	1    0    0    -1  
$EndComp
$Comp
L power:GND #PWR05
U 1 1 5F99CFB4
P 2800 2100
F 0 "#PWR05" H 2800 1850 50  0001 C CNN
F 1 "GND" V 2805 1972 50  0000 R CNN
F 2 "" H 2800 2100 50  0001 C CNN
F 3 "" H 2800 2100 50  0001 C CNN
	1    2800 2100
	0    1    1    0   
$EndComp
$Comp
L power:GND #PWR06
U 1 1 5F99D87A
P 2850 3200
F 0 "#PWR06" H 2850 2950 50  0001 C CNN
F 1 "GND" V 2855 3072 50  0000 R CNN
F 2 "" H 2850 3200 50  0001 C CNN
F 3 "" H 2850 3200 50  0001 C CNN
	1    2850 3200
	0    1    1    0   
$EndComp
$Comp
L power:GND #PWR09
U 1 1 5F99DE7A
P 4750 3150
F 0 "#PWR09" H 4750 2900 50  0001 C CNN
F 1 "GND" V 4755 3022 50  0000 R CNN
F 2 "" H 4750 3150 50  0001 C CNN
F 3 "" H 4750 3150 50  0001 C CNN
	1    4750 3150
	0    1    1    0   
$EndComp
$Comp
L power:GND #PWR010
U 1 1 5F99E2BE
P 4800 2050
F 0 "#PWR010" H 4800 1800 50  0001 C CNN
F 1 "GND" V 4805 1922 50  0000 R CNN
F 2 "" H 4800 2050 50  0001 C CNN
F 3 "" H 4800 2050 50  0001 C CNN
	1    4800 2050
	0    1    1    0   
$EndComp
Text Label 2150 2300 0    50   ~ 0
R-PIN
Text Label 2150 2500 0    50   ~ 0
B-PIN
Text Label 2150 2400 0    50   ~ 0
IR-PIN
$Comp
L power:VCC #PWR011
U 1 1 5FC6CC2A
P 6000 1450
F 0 "#PWR011" H 6000 1300 50  0001 C CNN
F 1 "VCC" V 6015 1578 50  0000 L CNN
F 2 "" H 6000 1450 50  0001 C CNN
F 3 "" H 6000 1450 50  0001 C CNN
	1    6000 1450
	1    0    0    -1  
$EndComp
$Comp
L power:VCC #PWR07
U 1 1 5FC6E646
P 3850 2600
F 0 "#PWR07" H 3850 2450 50  0001 C CNN
F 1 "VCC" V 3865 2728 50  0000 L CNN
F 2 "" H 3850 2600 50  0001 C CNN
F 3 "" H 3850 2600 50  0001 C CNN
	1    3850 2600
	1    0    0    -1  
$EndComp
$Comp
L Transistor_BJT:BC548 Q4
U 1 1 5FC80090
P 5000 1950
F 0 "Q4" V 5235 1950 50  0000 C CNN
F 1 "BC337" V 5326 1950 50  0000 C CNN
F 2 "Package_TO_SOT_THT:TO-92_Inline" H 5200 1875 50  0001 L CIN
F 3 "https://www.onsemi.com/pub/Collateral/BC550-D.pdf" H 5000 1950 50  0001 L CNN
	1    5000 1950
	0    1    1    0   
$EndComp
$Comp
L Device:LED B2
U 1 1 5F9946B1
P 3900 1950
F 0 "B2" H 3893 2167 50  0000 C CNN
F 1 "LED" H 3893 2076 50  0000 C CNN
F 2 "LED_THT:LED_D5.0mm_Clear" H 3900 1950 50  0001 C CNN
F 3 "~" H 3900 1950 50  0001 C CNN
	1    3900 1950
	0    -1   -1   0   
$EndComp
$Comp
L Device:LED B3
U 1 1 5F9946AB
P 4250 1950
F 0 "B3" H 4243 2167 50  0000 C CNN
F 1 "LED" H 4243 2076 50  0000 C CNN
F 2 "LED_THT:LED_D5.0mm_Clear" H 4250 1950 50  0001 C CNN
F 3 "~" H 4250 1950 50  0001 C CNN
	1    4250 1950
	0    -1   -1   0   
$EndComp
$Comp
L power:VCC #PWR012
U 1 1 5FC6EBB5
P 6000 2550
F 0 "#PWR012" H 6000 2400 50  0001 C CNN
F 1 "VCC" V 6015 2678 50  0000 L CNN
F 2 "" H 6000 2550 50  0001 C CNN
F 3 "" H 6000 2550 50  0001 C CNN
	1    6000 2550
	1    0    0    -1  
$EndComp
$Comp
L Device:LED R21
U 1 1 5F988FFD
P 6500 3000
F 0 "R21" H 6493 3217 50  0000 C CNN
F 1 "LED" H 6493 3126 50  0000 C CNN
F 2 "LED_THT:LED_D5.0mm_Clear" H 6500 3000 50  0001 C CNN
F 3 "~" H 6500 3000 50  0001 C CNN
	1    6500 3000
	0    -1   -1   0   
$EndComp
$Comp
L Device:LED R12
U 1 1 5F988D97
P 5450 3000
F 0 "R12" H 5443 3217 50  0000 C CNN
F 1 "LED" H 5443 3126 50  0000 C CNN
F 2 "LED_THT:LED_D5.0mm_Clear" H 5450 3000 50  0001 C CNN
F 3 "~" H 5450 3000 50  0001 C CNN
	1    5450 3000
	0    -1   -1   0   
$EndComp
$Comp
L Device:LED R15
U 1 1 5F988581
P 5800 3000
F 0 "R15" H 5793 3217 50  0000 C CNN
F 1 "LED" H 5793 3126 50  0000 C CNN
F 2 "LED_THT:LED_D5.0mm_Clear" H 5800 3000 50  0001 C CNN
F 3 "~" H 5800 3000 50  0001 C CNN
	1    5800 3000
	0    -1   -1   0   
$EndComp
$Comp
L Device:LED R18
U 1 1 5F987BCC
P 6150 3000
F 0 "R18" H 6143 3217 50  0000 C CNN
F 1 "LED" H 6143 3126 50  0000 C CNN
F 2 "LED_THT:LED_D5.0mm_Clear" H 6150 3000 50  0001 C CNN
F 3 "~" H 6150 3000 50  0001 C CNN
	1    6150 3000
	0    -1   -1   0   
$EndComp
$Comp
L Transistor_BJT:BC548 Q3
U 1 1 5FCEA787
P 4950 3050
F 0 "Q3" V 5185 3050 50  0000 C CNN
F 1 "BC337" V 5276 3050 50  0000 C CNN
F 2 "Package_TO_SOT_THT:TO-92_Inline" H 5150 2975 50  0001 L CIN
F 3 "https://www.onsemi.com/pub/Collateral/BC550-D.pdf" H 4950 3050 50  0001 L CNN
	1    4950 3050
	0    1    1    0   
$EndComp
$Comp
L Transistor_BJT:BC548 Q1
U 1 1 5FCEE7E1
P 3000 2000
F 0 "Q1" V 3235 2000 50  0000 C CNN
F 1 "BC337" V 3326 2000 50  0000 C CNN
F 2 "Package_TO_SOT_THT:TO-92_Inline" H 3200 1925 50  0001 L CIN
F 3 "https://www.onsemi.com/pub/Collateral/BC550-D.pdf" H 3000 2000 50  0001 L CNN
	1    3000 2000
	0    1    1    0   
$EndComp
$Comp
L Transistor_BJT:BC548 Q2
U 1 1 5FD0B251
P 3050 3100
F 0 "Q2" V 3285 3100 50  0000 C CNN
F 1 "BC337" V 3376 3100 50  0000 C CNN
F 2 "Package_TO_SOT_THT:TO-92_Inline" H 3250 3025 50  0001 L CIN
F 3 "https://www.onsemi.com/pub/Collateral/BC550-D.pdf" H 3050 3100 50  0001 L CNN
	1    3050 3100
	0    1    1    0   
$EndComp
Wire Wire Line
	3250 3200 3500 3200
Text Label 4950 2550 0    50   ~ 0
R-PIN
Text Label 3050 2600 0    50   ~ 0
G-PIN
Text Label 3000 1500 0    50   ~ 0
B-PIN
Text Label 5000 1450 0    50   ~ 0
IR-PIN
$Comp
L Connector:Conn_Coaxial_Power J1
U 1 1 5FD21552
P 2400 1100
F 0 "J1" H 2488 1096 50  0000 L CNN
F 1 "Conn_Coaxial_Power" H 2488 1005 50  0000 L CNN
F 2 "Connector_Wago:Wago_734-132_1x02_P3.50mm_Vertical" H 2400 1050 50  0001 C CNN
F 3 "~" H 2400 1050 50  0001 C CNN
	1    2400 1100
	1    0    0    -1  
$EndComp
Text Label 2150 2200 0    50   ~ 0
G-PIN
$Comp
L power:VCC #PWR01
U 1 1 5FD8CE93
P 1650 1700
F 0 "#PWR01" H 1650 1550 50  0001 C CNN
F 1 "VCC" H 1665 1873 50  0000 C CNN
F 2 "" H 1650 1700 50  0001 C CNN
F 3 "" H 1650 1700 50  0001 C CNN
	1    1650 1700
	1    0    0    -1  
$EndComp
NoConn ~ 1850 1700
NoConn ~ 2150 2600
NoConn ~ 2150 2700
NoConn ~ 2150 2800
NoConn ~ 1350 2950
NoConn ~ 1350 2400
NoConn ~ 1350 2300
Wire Wire Line
	1600 3300 1750 3300
Wire Wire Line
	1900 3300 1750 3300
Connection ~ 1750 3300
$Comp
L power:GND #PWR02
U 1 1 5FD9441F
P 1750 3300
F 0 "#PWR02" H 1750 3050 50  0001 C CNN
F 1 "GND" H 1755 3127 50  0000 C CNN
F 2 "" H 1750 3300 50  0001 C CNN
F 3 "" H 1750 3300 50  0001 C CNN
	1    1750 3300
	1    0    0    -1  
$EndComp
NoConn ~ 2150 2100
$Comp
L Device:R R10
U 1 1 5FDD4705
P 5000 1600
F 0 "R10" V 4793 1600 50  0000 C CNN
F 1 "10k" V 4884 1600 50  0000 C CNN
F 2 "Resistor_THT:R_Axial_DIN0207_L6.3mm_D2.5mm_P7.62mm_Horizontal" V 4930 1600 50  0001 C CNN
F 3 "~" H 5000 1600 50  0001 C CNN
	1    5000 1600
	1    0    0    -1  
$EndComp
$Comp
L Device:R R9
U 1 1 5FDD922D
P 4950 2700
F 0 "R9" V 4743 2700 50  0000 C CNN
F 1 "10k" V 4834 2700 50  0000 C CNN
F 2 "Resistor_THT:R_Axial_DIN0207_L6.3mm_D2.5mm_P7.62mm_Horizontal" V 4880 2700 50  0001 C CNN
F 3 "~" H 4950 2700 50  0001 C CNN
	1    4950 2700
	1    0    0    -1  
$EndComp
$Comp
L Device:R R1
U 1 1 5FDDCF49
P 3000 1650
F 0 "R1" V 2793 1650 50  0000 C CNN
F 1 "10k" V 2884 1650 50  0000 C CNN
F 2 "Resistor_THT:R_Axial_DIN0207_L6.3mm_D2.5mm_P7.62mm_Horizontal" V 2930 1650 50  0001 C CNN
F 3 "~" H 3000 1650 50  0001 C CNN
	1    3000 1650
	1    0    0    -1  
$EndComp
$Comp
L Device:R R2
U 1 1 5FDE319A
P 3050 2750
F 0 "R2" V 2843 2750 50  0000 C CNN
F 1 "10k" V 2934 2750 50  0000 C CNN
F 2 "Resistor_THT:R_Axial_DIN0207_L6.3mm_D2.5mm_P7.62mm_Horizontal" V 2980 2750 50  0001 C CNN
F 3 "~" H 3050 2750 50  0001 C CNN
	1    3050 2750
	1    0    0    -1  
$EndComp
$Comp
L custom-symbols:esp32cam U1
U 1 1 5FD4802D
P 1750 2500
F 0 "U1" H 2150 1650 50  0000 C CNN
F 1 "esp32cam" H 2150 1750 50  0000 C CNN
F 2 "custom-footprints:esp32cam" H 1750 1350 50  0001 C CNN
F 3 "https://wiki.wemos.cc/products:d1:d1_mini#documentation" H -100 1350 50  0001 C CNN
	1    1750 2500
	1    0    0    -1  
$EndComp
$Comp
L power:VCC #PWR03
U 1 1 5FC6B861
P 2050 1000
F 0 "#PWR03" H 2050 850 50  0001 C CNN
F 1 "VCC" H 2065 1173 50  0000 C CNN
F 2 "" H 2050 1000 50  0001 C CNN
F 3 "" H 2050 1000 50  0001 C CNN
	1    2050 1000
	1    0    0    -1  
$EndComp
Wire Wire Line
	3500 3200 3850 3200
Connection ~ 3500 3200
Wire Wire Line
	3850 3200 4200 3200
Connection ~ 3850 3200
$Comp
L Device:R R3
U 1 1 5FD1DCBB
P 3500 2750
F 0 "R3" H 3570 2796 50  0000 L CNN
F 1 "180" H 3570 2705 50  0000 L CNN
F 2 "Resistor_THT:R_Axial_DIN0207_L6.3mm_D2.5mm_P10.16mm_Horizontal" V 3430 2750 50  0001 C CNN
F 3 "~" H 3500 2750 50  0001 C CNN
	1    3500 2750
	1    0    0    -1  
$EndComp
$Comp
L Device:R R5
U 1 1 5FD1E114
P 3850 2750
F 0 "R5" H 3920 2796 50  0000 L CNN
F 1 "180" H 3920 2705 50  0000 L CNN
F 2 "Resistor_THT:R_Axial_DIN0207_L6.3mm_D2.5mm_P10.16mm_Horizontal" V 3780 2750 50  0001 C CNN
F 3 "~" H 3850 2750 50  0001 C CNN
	1    3850 2750
	1    0    0    -1  
$EndComp
$Comp
L Device:R R7
U 1 1 5FD1E6A0
P 4200 2750
F 0 "R7" H 4270 2796 50  0000 L CNN
F 1 "180" H 4270 2705 50  0000 L CNN
F 2 "Resistor_THT:R_Axial_DIN0207_L6.3mm_D2.5mm_P10.16mm_Horizontal" V 4130 2750 50  0001 C CNN
F 3 "~" H 4200 2750 50  0001 C CNN
	1    4200 2750
	1    0    0    -1  
$EndComp
$Comp
L Device:LED B1
U 1 1 5F9946B7
P 3550 1950
F 0 "B1" H 3543 2167 50  0000 C CNN
F 1 "LED" H 3543 2076 50  0000 C CNN
F 2 "LED_THT:LED_D5.0mm_Clear" H 3550 1950 50  0001 C CNN
F 3 "~" H 3550 1950 50  0001 C CNN
	1    3550 1950
	0    -1   -1   0   
$EndComp
Wire Wire Line
	3200 2100 3550 2100
Wire Wire Line
	3550 2100 3900 2100
Connection ~ 3550 2100
Wire Wire Line
	3900 2100 4250 2100
Connection ~ 3900 2100
$Comp
L Device:R R8
U 1 1 5FD5441B
P 4250 1650
F 0 "R8" H 4320 1696 50  0000 L CNN
F 1 "180" H 4320 1605 50  0000 L CNN
F 2 "Resistor_THT:R_Axial_DIN0207_L6.3mm_D2.5mm_P10.16mm_Horizontal" V 4180 1650 50  0001 C CNN
F 3 "~" H 4250 1650 50  0001 C CNN
	1    4250 1650
	1    0    0    -1  
$EndComp
$Comp
L Device:R R6
U 1 1 5FD54C5F
P 3900 1650
F 0 "R6" H 3970 1696 50  0000 L CNN
F 1 "180" H 3970 1605 50  0000 L CNN
F 2 "Resistor_THT:R_Axial_DIN0207_L6.3mm_D2.5mm_P10.16mm_Horizontal" V 3830 1650 50  0001 C CNN
F 3 "~" H 3900 1650 50  0001 C CNN
	1    3900 1650
	1    0    0    -1  
$EndComp
$Comp
L Device:R R4
U 1 1 5FD5542C
P 3550 1650
F 0 "R4" H 3620 1696 50  0000 L CNN
F 1 "180" H 3620 1605 50  0000 L CNN
F 2 "Resistor_THT:R_Axial_DIN0207_L6.3mm_D2.5mm_P10.16mm_Horizontal" V 3480 1650 50  0001 C CNN
F 3 "~" H 3550 1650 50  0001 C CNN
	1    3550 1650
	1    0    0    -1  
$EndComp
Wire Wire Line
	5200 2050 5500 2050
Wire Wire Line
	5500 2050 5850 2050
Connection ~ 5500 2050
Wire Wire Line
	5850 2050 6200 2050
Connection ~ 5850 2050
Wire Wire Line
	6200 2050 6550 2050
Connection ~ 6200 2050
$Comp
L power:VCC #PWR08
U 1 1 5FC6DEE8
P 3900 1500
F 0 "#PWR08" H 3900 1350 50  0001 C CNN
F 1 "VCC" V 3915 1628 50  0000 L CNN
F 2 "" H 3900 1500 50  0001 C CNN
F 3 "" H 3900 1500 50  0001 C CNN
	1    3900 1500
	1    0    0    -1  
$EndComp
Wire Wire Line
	3550 1500 3900 1500
Connection ~ 3900 1500
Wire Wire Line
	3900 1500 4250 1500
Wire Wire Line
	3500 2600 3850 2600
Connection ~ 3850 2600
Wire Wire Line
	3850 2600 4200 2600
Wire Wire Line
	5150 3150 5450 3150
Wire Wire Line
	5450 3150 5800 3150
Connection ~ 5450 3150
Wire Wire Line
	5800 3150 6150 3150
Connection ~ 5800 3150
Wire Wire Line
	6150 3150 6500 3150
Connection ~ 6150 3150
$Comp
L Device:R R13
U 1 1 5FE7FC9C
P 5500 1600
F 0 "R13" H 5570 1646 50  0000 L CNN
F 1 "180" H 5570 1555 50  0000 L CNN
F 2 "Resistor_THT:R_Axial_DIN0207_L6.3mm_D2.5mm_P10.16mm_Horizontal" V 5430 1600 50  0001 C CNN
F 3 "~" H 5500 1600 50  0001 C CNN
	1    5500 1600
	1    0    0    -1  
$EndComp
$Comp
L Device:R R16
U 1 1 5FE80534
P 5850 1600
F 0 "R16" H 5920 1646 50  0000 L CNN
F 1 "180" H 5920 1555 50  0000 L CNN
F 2 "Resistor_THT:R_Axial_DIN0207_L6.3mm_D2.5mm_P10.16mm_Horizontal" V 5780 1600 50  0001 C CNN
F 3 "~" H 5850 1600 50  0001 C CNN
	1    5850 1600
	1    0    0    -1  
$EndComp
$Comp
L Device:R R19
U 1 1 5FE80CA4
P 6200 1600
F 0 "R19" H 6270 1646 50  0000 L CNN
F 1 "180" H 6270 1555 50  0000 L CNN
F 2 "Resistor_THT:R_Axial_DIN0207_L6.3mm_D2.5mm_P10.16mm_Horizontal" V 6130 1600 50  0001 C CNN
F 3 "~" H 6200 1600 50  0001 C CNN
	1    6200 1600
	1    0    0    -1  
$EndComp
$Comp
L Device:R R22
U 1 1 5FE814D9
P 6550 1600
F 0 "R22" H 6620 1646 50  0000 L CNN
F 1 "180" H 6620 1555 50  0000 L CNN
F 2 "Resistor_THT:R_Axial_DIN0207_L6.3mm_D2.5mm_P10.16mm_Horizontal" V 6480 1600 50  0001 C CNN
F 3 "~" H 6550 1600 50  0001 C CNN
	1    6550 1600
	1    0    0    -1  
$EndComp
$Comp
L Device:R R20
U 1 1 5FE81CEC
P 6500 2700
F 0 "R20" H 6570 2746 50  0000 L CNN
F 1 "130" H 6570 2655 50  0000 L CNN
F 2 "Resistor_THT:R_Axial_DIN0207_L6.3mm_D2.5mm_P10.16mm_Horizontal" V 6430 2700 50  0001 C CNN
F 3 "~" H 6500 2700 50  0001 C CNN
	1    6500 2700
	1    0    0    -1  
$EndComp
$Comp
L Device:R R17
U 1 1 5FE8263B
P 6150 2700
F 0 "R17" H 6220 2746 50  0000 L CNN
F 1 "130" H 6220 2655 50  0000 L CNN
F 2 "Resistor_THT:R_Axial_DIN0207_L6.3mm_D2.5mm_P10.16mm_Horizontal" V 6080 2700 50  0001 C CNN
F 3 "~" H 6150 2700 50  0001 C CNN
	1    6150 2700
	1    0    0    -1  
$EndComp
$Comp
L Device:R R14
U 1 1 5FE82FF2
P 5800 2700
F 0 "R14" H 5870 2746 50  0000 L CNN
F 1 "13" H 5870 2655 50  0000 L CNN
F 2 "Resistor_THT:R_Axial_DIN0207_L6.3mm_D2.5mm_P10.16mm_Horizontal" V 5730 2700 50  0001 C CNN
F 3 "~" H 5800 2700 50  0001 C CNN
	1    5800 2700
	1    0    0    -1  
$EndComp
$Comp
L Device:R R11
U 1 1 5FE8394D
P 5450 2700
F 0 "R11" H 5520 2746 50  0000 L CNN
F 1 "130" H 5520 2655 50  0000 L CNN
F 2 "Resistor_THT:R_Axial_DIN0207_L6.3mm_D2.5mm_P10.16mm_Horizontal" V 5380 2700 50  0001 C CNN
F 3 "~" H 5450 2700 50  0001 C CNN
	1    5450 2700
	1    0    0    -1  
$EndComp
Wire Wire Line
	5500 1450 5850 1450
Connection ~ 5850 1450
Wire Wire Line
	5850 1450 6000 1450
Connection ~ 6000 1450
Wire Wire Line
	6000 1450 6200 1450
Wire Wire Line
	6200 1450 6550 1450
Connection ~ 6200 1450
Wire Wire Line
	5450 2550 5800 2550
Wire Wire Line
	5800 2550 6000 2550
Connection ~ 5800 2550
Wire Wire Line
	6000 2550 6150 2550
Connection ~ 6000 2550
Wire Wire Line
	6150 2550 6500 2550
Connection ~ 6150 2550
$Comp
L Device:CP C1
U 1 1 5FEF67D9
P 2050 1150
F 0 "C1" H 2168 1196 50  0000 L CNN
F 1 "CP" H 2168 1105 50  0000 L CNN
F 2 "Capacitor_THT:CP_Radial_D12.5mm_P7.50mm" H 2088 1000 50  0001 C CNN
F 3 "~" H 2050 1150 50  0001 C CNN
	1    2050 1150
	1    0    0    -1  
$EndComp
Wire Wire Line
	2050 1000 2400 1000
Connection ~ 2050 1000
Wire Wire Line
	2050 1300 2400 1300
Connection ~ 2050 1300
$EndSCHEMATC
