(module esp32cam (layer F.Cu) (tedit 5FC5C347)
  (descr "16-pin module, column spacing 22.86 mm (900 mils), https://wiki.wemos.cc/products:d1:d1_mini, https://c1.staticflickr.com/1/734/31400410271_f278b087db_z.jpg")
  (tags "ESP8266 WiFi microcontroller")
  (fp_text reference REF** (at -9.825 -8.8) (layer F.SilkS)
    (effects (font (size 1 1) (thickness 0.15)))
  )
  (fp_text value esp32cam_ai-thinker (at 0.175 16.8) (layer F.Fab)
    (effects (font (size 1 1) (thickness 0.15)))
  )
  (fp_text user "No copper" (at 0.305 29.99) (layer Cmts.User)
    (effects (font (size 1 1) (thickness 0.15)))
  )
  (fp_text user "KEEP OUT" (at 0.305 27.45) (layer Cmts.User)
    (effects (font (size 1 1) (thickness 0.15)))
  )
  (fp_arc (start 10.805 -5.31) (end 12.935 -5.31) (angle -90) (layer F.SilkS) (width 0.12))
  (fp_arc (start -10.795 -5.31) (end -10.795 -7.44) (angle -90) (layer F.SilkS) (width 0.12))
  (fp_arc (start 10.805 -5.31) (end 12.805 -5.29) (angle -90) (layer F.Fab) (width 0.1))
  (fp_arc (start -10.795 -5.31) (end -10.795 -7.31) (angle -90) (layer F.Fab) (width 0.1))
  (fp_text user %R (at 0.075 14.7) (layer F.Fab)
    (effects (font (size 1 1) (thickness 0.15)))
  )
  (fp_circle (center 0 0) (end 0.5 0) (layer F.CrtYd) (width 0.12))
  (fp_circle (center 0 0) (end 3 0) (layer F.CrtYd) (width 0.12))
  (fp_line (start -12.925 32.2) (end 12.935 32.2) (layer F.SilkS) (width 0.12))
  (fp_line (start -12.925 32.2) (end -12.925 -5.31) (layer F.SilkS) (width 0.12))
  (fp_line (start 12.935 32.2) (end 12.935 -5.31) (layer F.SilkS) (width 0.12))
  (fp_line (start 10.815 -7.44) (end -10.795 -7.44) (layer F.SilkS) (width 0.12))
  (fp_line (start -12.795 32.1) (end 12.775 32.1) (layer F.Fab) (width 0.1))
  (fp_line (start 12.775 32.1) (end 12.805 -5.31) (layer F.Fab) (width 0.1))
  (fp_line (start 10.805 -7.31) (end -10.795 -7.31) (layer F.Fab) (width 0.1))
  (fp_line (start -12.795 1.9) (end -12.795 19.99) (layer F.Fab) (width 0.1))
  (fp_line (start -13.045 -7.56) (end 13.055 -7.56) (layer F.CrtYd) (width 0.05))
  (fp_line (start 13.055 -7.51) (end 13.055 32.4) (layer F.CrtYd) (width 0.05))
  (fp_line (start 13.055 32.4) (end -13.025 32.4) (layer F.CrtYd) (width 0.05))
  (fp_line (start -13.045 32.4) (end -13.045 -7.56) (layer F.CrtYd) (width 0.05))
  (fp_line (start -12.825 32.14) (end 12.825 32.14) (layer Dwgs.User) (width 0.1))
  (fp_line (start 12.825 32.14) (end 12.825 25.34) (layer Dwgs.User) (width 0.1))
  (fp_line (start 12.825 25.34) (end -12.825 25.34) (layer Dwgs.User) (width 0.1))
  (fp_line (start -12.825 25.34) (end -12.825 32.14) (layer Dwgs.User) (width 0.1))
  (fp_line (start -12.775 32.14) (end -5.975 25.34) (layer Dwgs.User) (width 0.1))
  (fp_line (start -10.775 32.14) (end -3.975 25.34) (layer Dwgs.User) (width 0.1))
  (fp_line (start -8.775 32.14) (end -1.975 25.34) (layer Dwgs.User) (width 0.1))
  (fp_line (start -6.775 32.14) (end 0.025 25.34) (layer Dwgs.User) (width 0.1))
  (fp_line (start -4.775 32.14) (end 2.025 25.34) (layer Dwgs.User) (width 0.1))
  (fp_line (start -2.775 32.14) (end 4.025 25.34) (layer Dwgs.User) (width 0.1))
  (fp_line (start -0.775 32.14) (end 6.025 25.34) (layer Dwgs.User) (width 0.1))
  (fp_line (start 1.225 32.14) (end 8.025 25.34) (layer Dwgs.User) (width 0.1))
  (fp_line (start 3.225 32.14) (end 10.025 25.34) (layer Dwgs.User) (width 0.1))
  (fp_line (start 5.225 32.14) (end 12.025 25.34) (layer Dwgs.User) (width 0.1))
  (fp_line (start 7.225 32.14) (end 12.825 26.54) (layer Dwgs.User) (width 0.1))
  (fp_line (start 9.225 32.14) (end 12.825 28.54) (layer Dwgs.User) (width 0.1))
  (fp_line (start 11.225 32.14) (end 12.825 30.54) (layer Dwgs.User) (width 0.1))
  (fp_line (start -12.775 30.14) (end -7.975 25.34) (layer Dwgs.User) (width 0.1))
  (fp_line (start -12.725 28.09) (end -9.975 25.34) (layer Dwgs.User) (width 0.1))
  (fp_line (start -12.775 26.14) (end -11.975 25.34) (layer Dwgs.User) (width 0.1))
  (fp_line (start -12.795 19.99) (end -12.795 32.1) (layer F.Fab) (width 0.1))
  (fp_line (start -12.795 -5.31) (end -12.795 1.9) (layer F.Fab) (width 0.1))
  (pad 16 thru_hole oval (at 11.435 -5.085) (size 2 1.6) (drill 1) (layers *.Cu *.Mask))
  (pad 15 thru_hole oval (at 11.435 -2.545) (size 2 1.6) (drill 1) (layers *.Cu *.Mask))
  (pad 14 thru_hole oval (at 11.435 -0.005) (size 2 1.6) (drill 1) (layers *.Cu *.Mask))
  (pad 13 thru_hole oval (at 11.435 2.535) (size 2 1.6) (drill 1) (layers *.Cu *.Mask))
  (pad 12 thru_hole oval (at 11.435 5.075) (size 2 1.6) (drill 1) (layers *.Cu *.Mask))
  (pad 11 thru_hole oval (at 11.435 7.615) (size 2 1.6) (drill 1) (layers *.Cu *.Mask))
  (pad 10 thru_hole oval (at 11.435 10.155) (size 2 1.6) (drill 1) (layers *.Cu *.Mask))
  (pad 9 thru_hole oval (at 11.435 12.695) (size 2 1.6) (drill 1) (layers *.Cu *.Mask))
  (pad 8 thru_hole oval (at -11.425 12.695) (size 2 1.6) (drill 1) (layers *.Cu *.Mask))
  (pad 7 thru_hole oval (at -11.425 10.155) (size 2 1.6) (drill 1) (layers *.Cu *.Mask))
  (pad 6 thru_hole oval (at -11.425 7.615) (size 2 1.6) (drill 1) (layers *.Cu *.Mask))
  (pad 5 thru_hole oval (at -11.425 5.075) (size 2 1.6) (drill 1) (layers *.Cu *.Mask))
  (pad 4 thru_hole oval (at -11.425 2.535) (size 2 1.6) (drill 1) (layers *.Cu *.Mask))
  (pad 3 thru_hole oval (at -11.425 -0.005) (size 2 1.6) (drill 1) (layers *.Cu *.Mask))
  (pad 1 thru_hole rect (at -11.425 -5.085) (size 2 2) (drill 1) (layers *.Cu *.Mask))
  (pad 2 thru_hole oval (at -11.425 -2.545) (size 2 1.6) (drill 1) (layers *.Cu *.Mask))
  (model ${KISYS3DMOD}/Module.3dshapes/WEMOS_D1_mini_light.wrl
    (at (xyz 0 0 0))
    (scale (xyz 1 1 1))
    (rotate (xyz 0 0 0))
  )
  (model ${KISYS3DMOD}/Connector_PinHeader_2.54mm.3dshapes/PinHeader_1x08_P2.54mm_Vertical.wrl
    (offset (xyz 0 0 9.5))
    (scale (xyz 1 1 1))
    (rotate (xyz 0 -180 0))
  )
  (model ${KISYS3DMOD}/Connector_PinHeader_2.54mm.3dshapes/PinHeader_1x08_P2.54mm_Vertical.wrl
    (offset (xyz 22.86 0 9.5))
    (scale (xyz 1 1 1))
    (rotate (xyz 0 -180 0))
  )
  (model ${KISYS3DMOD}/Connector_PinSocket_2.54mm.3dshapes/PinSocket_1x08_P2.54mm_Vertical.wrl
    (at (xyz 0 0 0))
    (scale (xyz 1 1 1))
    (rotate (xyz 0 0 0))
  )
  (model ${KISYS3DMOD}/Connector_PinSocket_2.54mm.3dshapes/PinSocket_1x08_P2.54mm_Vertical.wrl
    (offset (xyz 22.86 0 0))
    (scale (xyz 1 1 1))
    (rotate (xyz 0 0 0))
  )
)
